{
    "MasterChefV3": "0x0000000000000000000000000000000000000000",
    "SmartRouter": "0x3B07eA3556CE5BF50E1FA41bAE2aEa8Dbfe92202",
    "SmartRouterHelper": "0xC255A4147687d5A40032061a4fFdc6b29BaBe9E9",
    "MixedRouteQuoterV1": "0x2feca2f85eeba729D333Df181125adB7217f81da",
    "QuoterV2": "0x19C6706cFd72f63CCC5B4403f5F8daEC0B569fEe",
    "TokenValidator": "0x2864574953bd39716c987CCe9473d9749442de45",
    "DonaswapV3Factory": "0x9C3AFDDEa87a726891A44C037242393D524CAcFE",
    "DonaswapV3PoolDeployer": "0x7342530a1a1b39DF96755504E236525395CC84a5",
    "SwapRouter": "0xd9a58088074084AAA8EfC504d32255634725b4b0",
    "V3Migrator": "0xe96845D6B1dF2549Fc303c9007534467dc36683a",
    "TickLens": "0x8fa63A7c39f62Ee6EA178A3Ab31D0d06b4b86B1C",
    "NonfungibleTokenPositionDescriptor": "0x93881Bb7Bf0CDff1919cC9abAcDeAfd98c43D31D",
    "NonfungiblePositionManager": "0x7569a77F0366D4408BD43973c28cc313D92B4c7c",
    "DonaswapInterfaceMulticall": "0x2921Cc3377C717B600468cfaB437a83C2dE5039d",
    "DonaswapV3LmPoolDeployer": "0x0000000000000000000000000000000000000000"
  }
  